{"data":{"All_Best_Product":[{"id":2,"category_id":2,"name":"Tyree Hand","description":"Sint dolorem et iste asperiores inventore cum. Assumenda sint non qui delectus alias. Voluptatibus nostrum adipisci et explicabo architecto nam alias.","photo":"repellat","price":1,"quantity":5,"is_offer":0,"offer":2,"expire_offer":"04:33:37","selling":9,"created_at":"2019-07-31T15:04:15.000000Z","link":"http:\/\/localhost\/market\/public\/api\/product\/2"},{"id":16,"category_id":16,"name":"Elinor Corkery","description":"Magni voluptatem quia quisquam minima distinctio. Autem recusandae maxime officia ullam reiciendis. Totam qui dolor voluptas aut possimus earum.","photo":"a","price":9,"quantity":2,"is_offer":0,"offer":5,"expire_offer":"16:23:24","selling":9,"created_at":"2019-07-31T15:04:31.000000Z","link":"http:\/\/localhost\/market\/public\/api\/product\/16"},{"id":3,"category_id":3,"name":"Jade Rempel","description":"Facere et et doloribus. Fugit ex architecto est. Fugiat in ut similique nisi. Officiis laudantium qui qui voluptatibus.","photo":"neque","price":2,"quantity":1,"is_offer":0,"offer":4,"expire_offer":"05:29:29","selling":7,"created_at":"2019-07-31T15:04:15.000000Z","link":"http:\/\/localhost\/market\/public\/api\/product\/3"},{"id":15,"category_id":15,"name":"Assunta Little","description":"Tempore illo deleniti cupiditate vel vitae. Voluptates voluptas ex non voluptas nisi voluptate ut magnam. Sint tenetur deserunt dolore culpa. Veritatis voluptates adipisci praesentium.","photo":"quas","price":9,"quantity":1,"is_offer":0,"offer":9,"expire_offer":"01:35:02","selling":7,"created_at":"2019-07-31T15:04:31.000000Z","link":"http:\/\/localhost\/market\/public\/api\/product\/15"},{"id":1,"category_id":1,"name":"Kendra Barrows","description":"Ea vel odio quia accusantium delectus modi necessitatibus. Ad nihil sapiente eos. Eum quae quisquam officiis quam illum at inventore aliquam. Quae pariatur omnis omnis soluta et laboriosam sint modi.","photo":"aliquam","price":3,"quantity":7,"is_offer":0,"offer":7,"expire_offer":"01:12:54","selling":6,"created_at":"2019-07-31T15:04:15.000000Z","link":"http:\/\/localhost\/market\/public\/api\/product\/1"}]},"links":{"first":"http:\/\/localhost\/market\/public\/api\/BestSelling?page=1","last":"http:\/\/localhost\/market\/public\/api\/BestSelling?page=4","prev":null,"next":"http:\/\/localhost\/market\/public\/api\/BestSelling?page=2"},"meta":{"current_page":1,"from":1,"last_page":4,"path":"http:\/\/localhost\/market\/public\/api\/BestSelling","per_page":5,"to":5,"total":20},"Status":"success","Error":"No Errors Found"}